Les bases de la manipulation de données
…
*La fonction select() entre souvent en conflit avec des
fonctions d’autres packages portant le même nom, il est donc recommandé
de toujours utiliser la notation dplyr::select().

# Conserver les observations pour les zones 2 et 3, et pour les années 2009 à 2011
croissance_selection <- filter(croissance_long, zone %in% c(2, 3), annee %in% c("X2009", "X2010", "X2011"))

# A titre de comparaison, l'equivalent en R basique serait :
croissance_long[croissance_long$zone %in% c(2, 3) & croissance_long$annee %in% c("X2009", "X2010", "X2011"), ]

# A tibble: 102 × 4
    zone indiv annee croissance
   <int> <int> <chr>      <dbl>
 1     2   373 X2009        4.8
 2     2   373 X2010        8.7
 3     2   373 X2011        6.3
 4     2   379 X2009        8.6
 5     2   379 X2010        4.9
 6     2   379 X2011        5.9
 7     2   383 X2009       11.7
 8     2   383 X2010        7.9
 9     2   383 X2011        8  
10     2   389 X2009        6.8
# … with 92 more rows
…
